3 Data Abstraction | EnvDataSci.utf8
…
summarize by group

3.6.1 Select, mutate, and the pipe

The pipe %>%: Read %>% as “and then…” This is bigger than it sounds and opens up a lot of possibilities. See example below, and observe how the expression becomes several lines long. In the process, we’ll see examples of new variables with mutate and selecting (and in the process ordering) variables. [If you haven’t already created it, this should be in a eucoak project]

runoff <- eucoakrainfallrunoffTDR %>%
  mutate(Date = as.Date(date,"%m/%d/%Y"),
         rain_subcanopy = (rain_oak + rain_euc)/2) %>%
  dplyr::select(site, Date, rain_mm, rain_subcanopy, 
         runoffL_oak, runoffL_euc, slope_oak, slope_euc)
runoff

## # A tibble: 90 x 8
##    site  Date       rain_mm rain_subcanopy runoffL_oak runoffL_euc slope_oak slope_euc
##    <chr> <date>       <dbl>          <dbl>       <dbl>       <dbl>     <dbl>     <dbl>
##  1 AB1   2006-11-08      29           29          4.79        6.7         32        31
##  2 AB1   2006-11-12      22           18.5        3.2         4.3         32        31
##  3 AB1   2006-11-29      85           65          9.7        16           32        31
##  4 AB1   2006-12-12      82           87.5       14          14.2         32        31
##  5 AB1   2006-12-28      43           54          9.75        4.33        32        31
##  6 AB1   2007-01-29       7           54          1.4         0           32        31
##  7 AB1   2007-02-09      56           44         10.1         0           32        31
##  8 AB1   2007-02-13      63           42.5        3.90        1.40        32        31
##  9 AB1   2007-02-28      NA           56          4.75        8.65        32        31
## 10 AB1   2007-03-22      NA            2         NA           0.11        32        31
## # ... with 80 more rows
…
one_of(myList) for when you have a group of variable names

range of variable: e.g. runoffL_oak:slope_euc could have followed rain_subcanopy above

all but (-): preface a variable or a set of variabe names with - to select all others

3.6.2 filter

filter lets you select observations that meet criteria, similar to an SQL WHERE clause.

runoff2007 <- runoff %>%
  filter(Date >= as.Date("01/01/2007", "%m/%d/%Y"))
runoff2007

## # A tibble: 51 x 8
##    site  Date       rain_mm rain_subcanopy runoffL_oak runoffL_euc slope_oak slope_euc
##    <chr> <date>       <dbl>          <dbl>       <dbl>       <dbl>     <dbl>     <dbl>
##  1 AB1   2007-01-29       7           54          1.4         0           32        31
##  2 AB1   2007-02-09      56           44         10.1         0           32        31
##  3 AB1   2007-02-13      63           42.5        3.90        1.40        32        31
##  4 AB1   2007-02-28      NA           56          4.75        8.65        32        31
##  5 AB1   2007-03-22      NA            2         NA           0.11        32        31
##  6 AB1   2007-04-23      NA           33.5        6.94        9.20        32        31
##  7 AB1   2007-05-05      NA           31          6.34        7.43        32        31
##  8 AB2   2007-01-29       4            3.5        1.26        0.05        24        25
##  9 AB2   2007-02-09      37           41.5        6.3         3.3         24        25
## 10 AB2   2007-02-13      43           49.5        6.78        1.14        24        25
## # ... with 41 more rows
…
Using the marine debris data from NOAA Marine Debris Program’s Marine Debris Monitoring and Assessment Project [in a new litter project]

shorelineLatLong <- ConcentrationReport %>%
  group_by(`Shoreline Name`) %>%
  summarize(
    latitude = mean((`Latitude Start`+`Latitude End`)/2),
    longitude = mean((`Longitude Start`+`Longitude End`)/2)
  ) %>%
  arrange(latitude)

## `summarise()` ungrouping output (override with `.groups` argument)

shorelineLatLong

## # A tibble: 38 x 3
##    `Shoreline Name`   latitude longitude
##    <chr>                 <dbl>     <dbl>
##  1 Aimee Arvidson         33.6     -118.
##  2 Balboa Pier #2         33.6     -118.
##  3 Bolsa Chica            33.7     -118.
##  4 Junipero Beach         33.8     -118.
##  5 Malaga Cove            33.8     -118.
##  6 Zuma Beach, Malibu     34.0     -119.
##  7 Zuma Beach             34.0     -119.
##  8 Will Rodgers           34.0     -119.
##  9 Carbon Beach           34.0     -119.
## 10 Nicholas Canyon        34.0     -119.
## # ... with 28 more rows
…
