5 Data Transformation | Introduction to Environmental Data Science
…
In our meadows study cross-section (Davis et al. 2020) created by intersecting normalized difference vegetation index (NDVI) values from multispectral drone imagery with surveyed elevation and vegetation types (xeric, mesic, and hydric), we have fields NDVIgrowing from a July 2019 growing season and NDVIsenescent from a September 2020 dry season, but would like ‘growing’ and ‘senescent’ to be factors with a single NDVI variable. This is how we used pivot_longer to accomplish this, using data from the iGIScData data package [NDVI]:

XSptsPheno <- XSptsNDVI %>%
      pivot_longer(cols = starts_with("NDVI"), 
                   names_to = "phenology", values_to = "NDVI") %>%
      mutate(phenology = str_sub(phenology, 5, str_length(phenology)))

Then to do the opposite use pivot_wider:

XSptsPheno %>%
  pivot_wider(names_from = phenology, names_prefix = "NDVI", 
              values_from = NDVI)

## # A tibble: 29 x 6
##    DistNtoS elevation vegetation      geometry                    NDVIgrowing NDVIsenescent
##       <dbl>     <dbl> <chr>           <chr>                             <dbl>         <dbl>
##  1      0       1510. Artemisia       c(718649.456, 4397466.714)        0.326         0.140
##  2     16.7     1510. mixed graminoid c(718649.4309, 4397450.077)       0.627         0.259
##  3     28.6     1510. mixed graminoid c(718649.413, 4397438.222)        0.686         0.329
##  4     30.5     1510. mixed graminoid c(718649.4101, 4397436.33)        0.668         0.282
##  5     31.1     1510. mixed graminoid c(718649.4092, 4397435.732)       0.655         0.266
##  6     33.4     1510. mixed graminoid c(718649.4058, 4397433.441)       0.617         0.274
##  7     35.6     1510. mixed graminoid c(718649.4025, 4397431.249)       0.623         0.275
##  8     37       1510. mixed graminoid c(718649.4004, 4397429.854)       0.589         0.242
##  9     74       1510. mixed graminoid c(718649.3448, 4397392.994)       0.641         0.325
## 10    101       1510. mixed graminoid c(718649.3042, 4397366.097)       0.558         0.312
## # ... with 19 more rows

XSptsPheno

## # A tibble: 58 x 6
##    DistNtoS elevation vegetation      geometry                    phenology  NDVI
##       <dbl>     <dbl> <chr>           <chr>                       <chr>     <dbl>
##  1      0       1510. Artemisia       c(718649.456, 4397466.714)  growing   0.326
##  2      0       1510. Artemisia       c(718649.456, 4397466.714)  senescent 0.140
##  3     16.7     1510. mixed graminoid c(718649.4309, 4397450.077) growing   0.627
##  4     16.7     1510. mixed graminoid c(718649.4309, 4397450.077) senescent 0.259
##  5     28.6     1510. mixed graminoid c(718649.413, 4397438.222)  growing   0.686
##  6     28.6     1510. mixed graminoid c(718649.413, 4397438.222)  senescent 0.329
##  7     30.5     1510. mixed graminoid c(718649.4101, 4397436.33)  growing   0.668
##  8     30.5     1510. mixed graminoid c(718649.4101, 4397436.33)  senescent 0.282
##  9     31.1     1510. mixed graminoid c(718649.4092, 4397435.732) growing   0.655
## 10     31.1     1510. mixed graminoid c(718649.4092, 4397435.732) senescent 0.266
## # ... with 48 more rows
…
