Chapter 3 Introduction to the tidyverse | Building a Data Package
…
summarize by group

3.6.1 Select, mutate, and the pipe

The pipe %>%: Read %>% as “and then…” This is bigger than it sounds and opens up a lot of possibilities. See example below, and observe how the expression becomes several lines long. In the process, we’ll see examples of new variables with mutate and selecting (and in the process ordering) variables:

runoff <- eucoakrainfallrunoffTDR %>%
  mutate(Date = as.Date(date,"%m/%d/%Y"),
         rain_subcanopy = (rain_oak + rain_euc)/2) %>%
  select(site, Date, rain_mm, rain_subcanopy, 
         runoffL_oak, runoffL_euc, slope_oak, slope_euc)
runoff

## # A tibble: 90 x 8
##    site  Date       rain_mm rain_subcanopy runoffL_oak
##    <chr> <date>       <dbl>          <dbl>       <dbl>
##  1 AB1   2006-11-08      29           29          4.79
##  2 AB1   2006-11-12      22           18.5        3.2 
##  3 AB1   2006-11-29      85           65          9.7 
##  4 AB1   2006-12-12      82           87.5       14   
##  5 AB1   2006-12-28      43           54          9.75
##  6 AB1   2007-01-29       7           54          1.4 
##  7 AB1   2007-02-09      56           44         10.1 
##  8 AB1   2007-02-13      63           42.5        3.90
##  9 AB1   2007-02-28      NA           56          4.75
## 10 AB1   2007-03-22      NA            2         NA   
## # ... with 80 more rows, and 3 more variables:
## #   runoffL_euc <dbl>, slope_oak <dbl>, slope_euc <dbl>

Note: to just rename a variable, use rename instead of mutate. It will stay in position.

3.6.2 filter

filter lets you select observations that meet criteria, similar to an SQL WHERE clause.

runoff2007 <- runoff %>%
  filter(Date >= as.Date("01/01/2007", "%m/%d/%Y"))
runoff2007

## # A tibble: 51 x 8
##    site  Date       rain_mm rain_subcanopy runoffL_oak
##    <chr> <date>       <dbl>          <dbl>       <dbl>
##  1 AB1   2007-01-29       7           54          1.4 
##  2 AB1   2007-02-09      56           44         10.1 
##  3 AB1   2007-02-13      63           42.5        3.90
##  4 AB1   2007-02-28      NA           56          4.75
##  5 AB1   2007-03-22      NA            2         NA   
##  6 AB1   2007-04-23      NA           33.5        6.94
##  7 AB1   2007-05-05      NA           31          6.34
##  8 AB2   2007-01-29       4            3.5        1.26
##  9 AB2   2007-02-09      37           41.5        6.3 
## 10 AB2   2007-02-13      43           49.5        6.78
## # ... with 41 more rows, and 3 more variables:
## #   runoffL_euc <dbl>, slope_oak <dbl>, slope_euc <dbl>
…
Using the marine debris data from NOAA Marine Debris Program’s Marine Debris Monitoring and Assessment Project

shorelineLatLong <- ConcentrationReport %>%
  group_by(`Shoreline Name`) %>%
  summarize(
    latitude = mean((`Latitude Start`+`Latitude End`)/2),
    longitude = mean((`Longitude Start`+`Longitude End`)/2)
  ) %>%
  arrange(latitude)

## `summarise()` ungrouping output (override with `.groups` argument)

shorelineLatLong

## # A tibble: 38 x 3
##    `Shoreline Name`   latitude longitude
##    <chr>                 <dbl>     <dbl>
##  1 Aimee Arvidson         33.6     -118.
##  2 Balboa Pier #2         33.6     -118.
##  3 Bolsa Chica            33.7     -118.
##  4 Junipero Beach         33.8     -118.
##  5 Malaga Cove            33.8     -118.
##  6 Zuma Beach, Malibu     34.0     -119.
##  7 Zuma Beach             34.0     -119.
##  8 Will Rodgers           34.0     -119.
##  9 Carbon Beach           34.0     -119.
## 10 Nicholas Canyon        34.0     -119.
## # ... with 28 more rows
…
