Chapter 2 Introduction to R | Environmental Data Science
…
## [1] 1

Surprisingly, the values returned by integer division or the remainder are not stored as integers. R seems to prefer floating point…

2.4 Rectangular data

A common data format used in most types of research is rectangular data such as in a spreadsheet,
with rows and columns, where rows might be observations and columns might be variables.
We’ll read this type of data in from spreadsheets or even more commonly from comma-separated-variable (CSV)
text files that spreadsheet programs like Excel commonly read in just like their native format.

sierraFeb

## # A tibble: 82 x 7
##    STATION_NAME    COUNTY ELEVATION LATITUDE LONGITUDE PRECIPITATION TEMPERATURE
##    <chr>           <chr>      <dbl>    <dbl>     <dbl>         <dbl>       <dbl>
##  1 GROVELAND 2, C~ Tuolu~     853.      37.8     -120.         176.          6.1
##  2 CANYON DAM, CA~ Plumas    1390.      40.2     -121.         164.          1.4
##  3 KERN RIVER PH ~ Kern       824.      35.8     -118.          67.1         8.9
##  4 DONNER MEMORIA~ Nevada    1810.      39.3     -120.         167.         -0.9
##  5 BOWMAN DAM, CA~ Nevada    1641.      39.5     -121.         277.          2.9
##  6 BRUSH CREEK RA~ Butte     1085.      39.7     -121.         296.         NA  
##  7 GRANT GROVE, C~ Tulare    2012.      36.7     -119.         186.          1.7
##  8 LEE VINING, CA~ Mono      2072.      38.0     -119.          71.9         0.4
##  9 OROVILLE MUNIC~ Butte       57.9     39.5     -122.         138.         10.3
## 10 LEMON COVE, CA~ Tulare     156.      36.4     -119.          62.7        11.3
## # ... with 72 more rows
…
